<svg width="47" height="11" viewBox="0 0 47 11" fill="none" xmlns="http://www.w3.org/2000/svg">
<path d="M7.416 0.927999C7.536 0.927999 7.632 0.96 7.704 1.024C7.784 1.088 7.84 1.172 7.872 1.276C7.904 1.38 7.912 1.5 7.896 1.636C7.88 1.764 7.84 1.892 7.776 2.02C7.76 2.036 7.74 2.044 7.716 2.044C7.692 2.036 7.676 2.016 7.668 1.984C7.684 1.864 7.652 1.776 7.572 1.72C7.492 1.656 7.38 1.624 7.236 1.624C6.804 1.624 6.388 1.768 5.988 2.056C5.588 2.344 5.208 2.788 4.848 3.388C4.496 3.98 4.168 4.736 3.864 5.656C3.568 6.568 3.3 7.656 3.06 8.92C3.02 9.096 3.016 9.248 3.048 9.376C3.08 9.496 3.14 9.556 3.228 9.556C3.316 9.556 3.4 9.52 3.48 9.448C3.56 9.376 3.632 9.284 3.696 9.172C3.712 9.156 3.732 9.156 3.756 9.172C3.788 9.188 3.8 9.212 3.792 9.244C3.752 9.324 3.692 9.408 3.612 9.496C3.54 9.584 3.456 9.668 3.36 9.748C3.272 9.82 3.176 9.88 3.072 9.928C2.976 9.976 2.888 10 2.808 10C2.632 10 2.508 9.936 2.436 9.808C2.364 9.68 2.336 9.536 2.352 9.376C2.368 9.24 2.388 9.112 2.412 8.992C2.436 8.872 2.464 8.744 2.496 8.608C2.336 8.952 2.112 9.252 1.824 9.508C1.536 9.756 1.252 9.92 0.972 10C0.788 10 0.64 9.932 0.528 9.796C0.416 9.66 0.36 9.484 0.36 9.268C0.36 8.956 0.416 8.66 0.528 8.38C0.64 8.092 0.792 7.84 0.984 7.624C1.176 7.408 1.404 7.236 1.668 7.108C1.932 6.98 2.216 6.916 2.52 6.916C2.688 6.916 2.836 6.944 2.964 7C3.108 6.568 3.28 6.12 3.48 5.656C3.68 5.184 3.9 4.724 4.14 4.276C4.38 3.828 4.632 3.4 4.896 2.992C5.168 2.584 5.444 2.228 5.724 1.924C6.004 1.62 6.288 1.38 6.576 1.204C6.864 1.02 7.144 0.927999 7.416 0.927999ZM1.356 9.532C1.444 9.532 1.548 9.488 1.668 9.4C1.788 9.304 1.912 9.18 2.04 9.028C2.168 8.868 2.288 8.688 2.4 8.488C2.512 8.28 2.608 8.06 2.688 7.828C2.72 7.756 2.748 7.684 2.772 7.612C2.796 7.532 2.816 7.456 2.832 7.384C2.8 7.288 2.736 7.22 2.64 7.18C2.552 7.132 2.452 7.108 2.34 7.108C2.172 7.108 2.008 7.16 1.848 7.264C1.688 7.36 1.548 7.496 1.428 7.672C1.308 7.848 1.208 8.056 1.128 8.296C1.056 8.536 1.02 8.8 1.02 9.088C1.02 9.216 1.048 9.324 1.104 9.412C1.168 9.492 1.252 9.532 1.356 9.532ZM5.95659 6.928C6.23659 6.928 6.44459 7.012 6.58059 7.18C6.71659 7.348 6.78459 7.544 6.78459 7.768C6.78459 8.08 6.72059 8.372 6.59259 8.644C6.47259 8.908 6.32059 9.144 6.13659 9.352C5.96059 9.552 5.76859 9.712 5.56059 9.832C5.35259 9.944 5.16459 10 4.99659 10C4.72459 10 4.51659 9.92 4.37259 9.76C4.23659 9.592 4.16859 9.38 4.16859 9.124C4.16859 8.892 4.21659 8.648 4.31259 8.392C4.41659 8.136 4.54859 7.9 4.70859 7.684C4.87659 7.468 5.06859 7.288 5.28459 7.144C5.50059 7 5.72459 6.928 5.95659 6.928ZM5.29659 9.628C5.54459 9.628 5.75259 9.5 5.92059 9.244C6.09659 8.98 6.18459 8.62 6.18459 8.164C6.18459 7.924 6.13659 7.724 6.04059 7.564C5.94459 7.404 5.80459 7.324 5.62059 7.324C5.36459 7.324 5.15659 7.448 4.99659 7.696C4.83659 7.944 4.75659 8.308 4.75659 8.788C4.75659 9.068 4.80459 9.28 4.90059 9.424C5.00459 9.56 5.13659 9.628 5.29659 9.628ZM9.27834 8.008C9.23034 8.024 9.20634 8.004 9.20634 7.948C9.26234 7.78 9.25034 7.632 9.17034 7.504C9.09834 7.376 8.96234 7.312 8.76234 7.312C8.50634 7.312 8.29834 7.472 8.13834 7.792C7.98634 8.112 7.91034 8.528 7.91034 9.04C7.91034 9.416 8.05834 9.604 8.35434 9.604C8.49034 9.604 8.63834 9.556 8.79834 9.46C8.96634 9.356 9.11834 9.224 9.25434 9.064C9.28634 9.048 9.31434 9.052 9.33834 9.076C9.36234 9.1 9.36634 9.128 9.35034 9.16C9.15034 9.416 8.92634 9.62 8.67834 9.772C8.43034 9.924 8.16634 10 7.88634 10C7.71034 10 7.56234 9.94 7.44234 9.82C7.32234 9.692 7.26234 9.516 7.26234 9.292C7.26234 9.012 7.31834 8.732 7.43034 8.452C7.55034 8.164 7.70234 7.908 7.88634 7.684C8.07034 7.46 8.27034 7.28 8.48634 7.144C8.70234 7 8.91434 6.928 9.12234 6.928C9.30634 6.928 9.45034 6.98 9.55434 7.084C9.65834 7.188 9.71034 7.304 9.71034 7.432C9.71034 7.48 9.69434 7.532 9.66234 7.588C9.63834 7.644 9.60234 7.7 9.55434 7.756C9.51434 7.812 9.46634 7.864 9.41034 7.912C9.36234 7.96 9.31834 7.992 9.27834 8.008ZM12.3085 6.988C12.3485 7.004 12.3645 7.028 12.3565 7.06C12.3485 7.084 12.3125 7.104 12.2485 7.12C12.1285 7.12 11.9885 7.124 11.8285 7.132C11.6765 7.14 11.5125 7.152 11.3365 7.168C11.1765 7.56 11.0445 7.944 10.9405 8.32C10.8365 8.688 10.7845 8.988 10.7845 9.22C10.7845 9.492 10.8885 9.628 11.0965 9.628C11.3045 9.628 11.5365 9.448 11.7925 9.088C11.8165 9.072 11.8365 9.072 11.8525 9.088C11.8765 9.104 11.8845 9.132 11.8765 9.172C11.7405 9.396 11.5685 9.592 11.3605 9.76C11.1525 9.92 10.9485 10 10.7485 10C10.5405 10 10.3845 9.952 10.2805 9.856C10.1845 9.752 10.1365 9.612 10.1365 9.436C10.1365 9.204 10.1925 8.884 10.3045 8.476C10.4165 8.068 10.5605 7.652 10.7365 7.228C10.5285 7.252 10.3365 7.284 10.1605 7.324C10.1205 7.316 10.1085 7.296 10.1245 7.264C10.1485 7.232 10.1845 7.2 10.2325 7.168C10.2885 7.128 10.3525 7.096 10.4245 7.072C10.4965 7.04 10.5645 7.024 10.6285 7.024C10.6605 7.024 10.6925 7.024 10.7245 7.024C10.7565 7.024 10.7885 7.02 10.8205 7.012C10.9245 6.78 11.0325 6.556 11.1445 6.34C11.2565 6.124 11.3685 5.928 11.4805 5.752C11.5285 5.696 11.5925 5.648 11.6725 5.608C11.7605 5.56 11.8445 5.524 11.9245 5.5C12.0045 5.476 12.0685 5.464 12.1165 5.464C12.1725 5.456 12.1965 5.468 12.1885 5.5C12.0525 5.708 11.9165 5.94 11.7805 6.196C11.6525 6.452 11.5285 6.72 11.4085 7C11.5605 6.992 11.7125 6.988 11.8645 6.988C12.0245 6.988 12.1725 6.988 12.3085 6.988ZM14.0308 6.928C14.3108 6.928 14.5188 7.012 14.6548 7.18C14.7908 7.348 14.8588 7.544 14.8588 7.768C14.8588 8.08 14.7948 8.372 14.6668 8.644C14.5468 8.908 14.3948 9.144 14.2108 9.352C14.0348 9.552 13.8428 9.712 13.6348 9.832C13.4268 9.944 13.2388 10 13.0708 10C12.7988 10 12.5908 9.92 12.4468 9.76C12.3108 9.592 12.2428 9.38 12.2428 9.124C12.2428 8.892 12.2908 8.648 12.3868 8.392C12.4908 8.136 12.6228 7.9 12.7828 7.684C12.9508 7.468 13.1428 7.288 13.3588 7.144C13.5748 7 13.7988 6.928 14.0308 6.928ZM13.3708 9.628C13.6188 9.628 13.8268 9.5 13.9948 9.244C14.1708 8.98 14.2588 8.62 14.2588 8.164C14.2588 7.924 14.2108 7.724 14.1148 7.564C14.0188 7.404 13.8788 7.324 13.6948 7.324C13.4388 7.324 13.2308 7.448 13.0708 7.696C12.9108 7.944 12.8308 8.308 12.8308 8.788C12.8308 9.068 12.8788 9.28 12.9748 9.424C13.0788 9.56 13.2108 9.628 13.3708 9.628ZM16.6086 7.276C16.6086 7.396 16.5966 7.532 16.5726 7.684C16.5486 7.836 16.5166 7.992 16.4766 8.152C16.6366 7.768 16.8126 7.468 17.0046 7.252C17.1966 7.036 17.4046 6.928 17.6286 6.928C17.7486 6.928 17.8406 6.956 17.9046 7.012C17.9686 7.068 18.0006 7.14 18.0006 7.228C18.0006 7.308 17.9686 7.412 17.9046 7.54C17.8486 7.668 17.8006 7.756 17.7606 7.804C17.7446 7.812 17.7286 7.812 17.7126 7.804C17.6966 7.788 17.6886 7.772 17.6886 7.756C17.6886 7.7 17.6646 7.652 17.6166 7.612C17.5766 7.572 17.5126 7.552 17.4246 7.552C17.1446 7.552 16.8886 7.744 16.6566 8.128C16.4326 8.504 16.2246 9.048 16.0326 9.76C16.0246 9.8 15.9966 9.836 15.9486 9.868C15.9006 9.892 15.8446 9.916 15.7806 9.94C15.7246 9.956 15.6646 9.972 15.6006 9.988C15.5366 9.996 15.4806 10 15.4326 10C15.3446 10 15.3206 9.952 15.3606 9.856C15.4326 9.688 15.5006 9.508 15.5646 9.316C15.6366 9.116 15.7006 8.916 15.7566 8.716C15.8126 8.516 15.8606 8.324 15.9006 8.14C15.9406 7.948 15.9726 7.772 15.9966 7.612C16.0126 7.492 16.0166 7.4 16.0086 7.336C16.0086 7.272 15.9766 7.24 15.9126 7.24C15.8326 7.24 15.7486 7.276 15.6606 7.348C15.5806 7.412 15.5046 7.496 15.4326 7.6C15.4006 7.624 15.3686 7.628 15.3366 7.612C15.3126 7.588 15.3086 7.56 15.3246 7.528C15.3726 7.464 15.4286 7.4 15.4926 7.336C15.5646 7.264 15.6406 7.2 15.7206 7.144C15.8086 7.08 15.8966 7.028 15.9846 6.988C16.0806 6.948 16.1766 6.928 16.2726 6.928C16.4006 6.928 16.4886 6.96 16.5366 7.024C16.5846 7.08 16.6086 7.164 16.6086 7.276ZM17.9155 10.348C18.0515 10.34 18.2635 10.332 18.5515 10.324C18.8395 10.316 19.1515 10.308 19.4875 10.3C19.8235 10.3 20.1515 10.3 20.4715 10.3C20.7915 10.3 21.0555 10.3 21.2635 10.3C21.3035 10.316 21.3115 10.356 21.2875 10.42C21.2715 10.484 21.2275 10.524 21.1555 10.54C20.9475 10.54 20.6915 10.54 20.3875 10.54C20.0835 10.548 19.7595 10.556 19.4155 10.564C19.0715 10.572 18.7235 10.588 18.3715 10.612C18.0195 10.636 17.6915 10.664 17.3875 10.696C17.3475 10.688 17.3435 10.664 17.3755 10.624C17.3995 10.592 17.4435 10.556 17.5075 10.516C17.5635 10.476 17.6275 10.44 17.6995 10.408C17.7795 10.376 17.8515 10.356 17.9155 10.348ZM29.9089 2.26C30.1569 2.26 30.3569 2.348 30.5089 2.524C30.6609 2.692 30.7369 2.9 30.7369 3.148C30.7369 3.308 30.7009 3.496 30.6289 3.712C30.5569 3.92 30.4809 4.092 30.4009 4.228C30.3689 4.252 30.3329 4.256 30.2929 4.24C30.2609 4.224 30.2489 4.196 30.2569 4.156C30.3049 4.012 30.3249 3.868 30.3169 3.724C30.3089 3.58 30.2689 3.448 30.1969 3.328C30.1249 3.208 30.0129 3.112 29.8609 3.04C29.7169 2.96 29.5329 2.92 29.3089 2.92C29.0049 2.92 28.7409 2.976 28.5169 3.088C28.3009 3.192 28.1009 3.38 27.9169 3.652C27.7329 3.916 27.5609 4.272 27.4009 4.72C27.2409 5.168 27.0769 5.728 26.9089 6.4C26.6289 7.472 26.2409 8.3 25.7449 8.884C26.1049 9.02 26.4809 9.144 26.8729 9.256C27.2729 9.36 27.7129 9.412 28.1929 9.412C28.5929 9.412 28.8969 9.34 29.1049 9.196C29.3129 9.052 29.4849 8.844 29.6209 8.572C29.6529 8.548 29.6809 8.548 29.7049 8.572C29.7369 8.588 29.7489 8.62 29.7409 8.668C29.5489 9.1 29.2929 9.432 28.9729 9.664C28.6529 9.888 28.2249 10 27.6889 10C27.2169 10 26.7849 9.932 26.3929 9.796C26.0089 9.652 25.6329 9.5 25.2649 9.34C24.6809 9.78 23.9649 10 23.1169 10C22.7969 10 22.5569 9.944 22.3969 9.832C22.2369 9.72 22.1569 9.58 22.1569 9.412C22.1569 9.308 22.1929 9.196 22.2649 9.076C22.3449 8.956 22.4529 8.844 22.5889 8.74C22.7249 8.636 22.8849 8.548 23.0689 8.476C23.2609 8.404 23.4729 8.368 23.7049 8.368C24.0009 8.368 24.2889 8.408 24.5689 8.488C24.8569 8.56 25.1489 8.652 25.4449 8.764C25.5809 8.54 25.7129 8.26 25.8409 7.924C25.9689 7.588 26.0969 7.176 26.2249 6.688C26.4089 6 26.6289 5.384 26.8849 4.84C27.1409 4.288 27.4249 3.824 27.7369 3.448C28.0569 3.064 28.3969 2.772 28.7569 2.572C29.1249 2.364 29.5089 2.26 29.9089 2.26ZM23.6569 9.688C23.9449 9.688 24.2009 9.66 24.4249 9.604C24.6569 9.54 24.8649 9.42 25.0489 9.244C24.7529 9.116 24.4529 9.004 24.1489 8.908C23.8449 8.812 23.5209 8.764 23.1769 8.764C22.8089 8.764 22.6249 8.888 22.6249 9.136C22.6249 9.296 22.7129 9.428 22.8889 9.532C23.0729 9.636 23.3289 9.688 23.6569 9.688ZM33.5425 9.244C33.5585 9.228 33.5785 9.228 33.6025 9.244C33.6265 9.26 33.6345 9.284 33.6265 9.316C33.4825 9.524 33.3225 9.692 33.1465 9.82C32.9705 9.94 32.8025 10 32.6425 10C32.4585 10 32.3385 9.872 32.2825 9.616C32.2345 9.352 32.2625 9.04 32.3665 8.68C32.1505 9.024 31.9145 9.32 31.6585 9.568C31.4105 9.808 31.1465 9.952 30.8665 10C30.6745 10 30.5265 9.912 30.4225 9.736C30.3185 9.56 30.2665 9.356 30.2665 9.124C30.2665 8.86 30.3305 8.6 30.4585 8.344C30.5865 8.08 30.7545 7.844 30.9625 7.636C31.1785 7.428 31.4145 7.26 31.6705 7.132C31.9345 6.996 32.1985 6.928 32.4625 6.928C32.7425 6.928 32.9625 6.996 33.1225 7.132C33.2025 7.076 33.3025 7.028 33.4225 6.988C33.5505 6.948 33.6625 6.928 33.7585 6.928C33.7905 6.928 33.8065 6.948 33.8065 6.988C33.6225 7.212 33.4625 7.46 33.3265 7.732C33.1985 7.996 33.0985 8.252 33.0265 8.5C32.9545 8.74 32.9105 8.956 32.8945 9.148C32.8785 9.34 32.8945 9.472 32.9425 9.544C32.9825 9.592 33.0505 9.608 33.1465 9.592C33.2425 9.568 33.3745 9.452 33.5425 9.244ZM31.2385 9.556C31.3345 9.556 31.4505 9.496 31.5865 9.376C31.7305 9.256 31.8785 9.096 32.0305 8.896C32.1825 8.696 32.3305 8.472 32.4745 8.224C32.6265 7.976 32.7585 7.724 32.8705 7.468C32.8385 7.364 32.7625 7.28 32.6425 7.216C32.5305 7.152 32.3985 7.12 32.2465 7.12C32.0625 7.12 31.8905 7.168 31.7305 7.264C31.5705 7.352 31.4305 7.48 31.3105 7.648C31.1985 7.808 31.1065 8.004 31.0345 8.236C30.9705 8.46 30.9385 8.708 30.9385 8.98C30.9385 9.156 30.9665 9.296 31.0225 9.4C31.0865 9.504 31.1585 9.556 31.2385 9.556ZM34.5763 9.196C34.7603 9.26 34.9483 9.316 35.1403 9.364C35.3403 9.404 35.5363 9.424 35.7283 9.424C35.9283 9.424 36.0843 9.376 36.1963 9.28C36.3163 9.184 36.4083 9.052 36.4723 8.884C36.4963 8.86 36.5203 8.856 36.5443 8.872C36.5763 8.888 36.5883 8.912 36.5803 8.944C36.3163 9.648 35.9283 10 35.4163 10C35.2483 10 35.0763 9.98 34.9003 9.94C34.7323 9.9 34.5603 9.848 34.3843 9.784C34.2803 9.752 34.1883 9.752 34.1083 9.784C34.0283 9.808 33.9243 9.88 33.7963 10C33.7563 10 33.7283 9.98 33.7123 9.94C33.6883 9.9 33.6843 9.86 33.7003 9.82C33.8763 9.644 34.0643 9.46 34.2643 9.268C34.4643 9.068 34.6643 8.872 34.8643 8.68C35.0643 8.488 35.2603 8.3 35.4523 8.116C35.6443 7.932 35.8203 7.764 35.9803 7.612C35.7963 7.572 35.5883 7.54 35.3563 7.516C35.1323 7.484 34.9443 7.468 34.7923 7.468C34.5603 7.468 34.4003 7.596 34.3123 7.852C34.2963 7.876 34.2723 7.88 34.2403 7.864C34.2083 7.848 34.1923 7.828 34.1923 7.804C34.2963 7.516 34.4163 7.3 34.5523 7.156C34.6883 7.004 34.8763 6.928 35.1163 6.928C35.3003 6.928 35.4963 6.948 35.7043 6.988C35.9203 7.028 36.0843 7.06 36.1963 7.084C36.2843 7.108 36.3603 7.108 36.4243 7.084C36.4963 7.06 36.5643 7.02 36.6283 6.964C36.6523 6.94 36.6883 6.928 36.7363 6.928C36.8323 6.928 36.8723 6.964 36.8563 7.036C36.4163 7.444 36.0083 7.824 35.6323 8.176C35.2643 8.52 34.9123 8.86 34.5763 9.196ZM37.6028 10C37.2668 10 37.0988 9.816 37.0988 9.448C37.0988 9.32 37.1108 9.172 37.1348 9.004C37.1668 8.836 37.2108 8.664 37.2668 8.488C37.3308 8.304 37.4028 8.12 37.4828 7.936C37.5628 7.752 37.6588 7.576 37.7708 7.408C37.6828 7.464 37.5988 7.524 37.5188 7.588C37.4388 7.644 37.3668 7.704 37.3028 7.768C37.2788 7.784 37.2548 7.78 37.2308 7.756C37.2148 7.724 37.2148 7.696 37.2308 7.672C37.3668 7.528 37.5588 7.38 37.8068 7.228C38.0628 7.076 38.3068 6.956 38.5388 6.868C38.5788 6.868 38.6068 6.88 38.6228 6.904C38.6468 6.92 38.6508 6.944 38.6348 6.976C38.3788 7.312 38.1708 7.676 38.0108 8.068C37.8588 8.46 37.7828 8.84 37.7828 9.208C37.7828 9.44 37.8548 9.556 37.9988 9.556C38.1028 9.556 38.2308 9.488 38.3828 9.352C38.5348 9.208 38.6948 9.024 38.8628 8.8C39.0308 8.568 39.1988 8.308 39.3668 8.02C39.5428 7.732 39.7028 7.44 39.8468 7.144C39.8708 7.096 39.9388 7.048 40.0508 7C40.1708 6.952 40.2908 6.928 40.4108 6.928C40.5308 6.928 40.5668 6.96 40.5188 7.024C40.4068 7.232 40.3068 7.428 40.2188 7.612C40.1388 7.788 40.0708 7.964 40.0148 8.14C39.9588 8.316 39.9148 8.496 39.8828 8.68C39.8588 8.856 39.8468 9.052 39.8468 9.268C39.8468 9.524 39.9148 9.652 40.0508 9.652C40.1868 9.652 40.3388 9.532 40.5068 9.292C40.5308 9.276 40.5548 9.276 40.5788 9.292C40.6028 9.308 40.6108 9.332 40.6028 9.364C40.4668 9.572 40.3148 9.732 40.1468 9.844C39.9868 9.948 39.8388 10 39.7028 10C39.3668 10 39.1988 9.804 39.1988 9.412C39.1988 9.004 39.2708 8.6 39.4148 8.2C39.1108 8.752 38.7908 9.192 38.4548 9.52C38.1188 9.84 37.8348 10 37.6028 10ZM43.3632 6.988C43.4032 7.004 43.4192 7.028 43.4112 7.06C43.4032 7.084 43.3672 7.104 43.3032 7.12C43.1832 7.12 43.0432 7.124 42.8832 7.132C42.7312 7.14 42.5672 7.152 42.3912 7.168C42.2312 7.56 42.0992 7.944 41.9952 8.32C41.8912 8.688 41.8392 8.988 41.8392 9.22C41.8392 9.492 41.9432 9.628 42.1512 9.628C42.3592 9.628 42.5912 9.448 42.8472 9.088C42.8712 9.072 42.8912 9.072 42.9072 9.088C42.9312 9.104 42.9392 9.132 42.9312 9.172C42.7952 9.396 42.6232 9.592 42.4152 9.76C42.2072 9.92 42.0032 10 41.8032 10C41.5952 10 41.4392 9.952 41.3352 9.856C41.2392 9.752 41.1912 9.612 41.1912 9.436C41.1912 9.204 41.2472 8.884 41.3592 8.476C41.4712 8.068 41.6152 7.652 41.7912 7.228C41.5832 7.252 41.3912 7.284 41.2152 7.324C41.1752 7.316 41.1632 7.296 41.1792 7.264C41.2032 7.232 41.2392 7.2 41.2872 7.168C41.3432 7.128 41.4072 7.096 41.4792 7.072C41.5512 7.04 41.6192 7.024 41.6832 7.024C41.7152 7.024 41.7472 7.024 41.7792 7.024C41.8112 7.024 41.8432 7.02 41.8752 7.012C41.9792 6.78 42.0872 6.556 42.1992 6.34C42.3112 6.124 42.4232 5.928 42.5352 5.752C42.5832 5.696 42.6472 5.648 42.7272 5.608C42.8152 5.56 42.8992 5.524 42.9792 5.5C43.0592 5.476 43.1232 5.464 43.1712 5.464C43.2272 5.456 43.2512 5.468 43.2432 5.5C43.1072 5.708 42.9712 5.94 42.8352 6.196C42.7072 6.452 42.5832 6.72 42.4632 7C42.6152 6.992 42.7672 6.988 42.9192 6.988C43.0792 6.988 43.2272 6.988 43.3632 6.988ZM46.5855 9.244C46.6015 9.228 46.6215 9.228 46.6455 9.244C46.6695 9.26 46.6775 9.284 46.6695 9.316C46.5255 9.524 46.3655 9.692 46.1895 9.82C46.0135 9.94 45.8455 10 45.6855 10C45.5015 10 45.3815 9.872 45.3255 9.616C45.2775 9.352 45.3055 9.04 45.4095 8.68C45.1935 9.024 44.9575 9.32 44.7015 9.568C44.4535 9.808 44.1895 9.952 43.9095 10C43.7175 10 43.5695 9.912 43.4655 9.736C43.3615 9.56 43.3095 9.356 43.3095 9.124C43.3095 8.86 43.3735 8.6 43.5015 8.344C43.6295 8.08 43.7975 7.844 44.0055 7.636C44.2215 7.428 44.4575 7.26 44.7135 7.132C44.9775 6.996 45.2415 6.928 45.5055 6.928C45.7855 6.928 46.0055 6.996 46.1655 7.132C46.2455 7.076 46.3455 7.028 46.4655 6.988C46.5935 6.948 46.7055 6.928 46.8015 6.928C46.8335 6.928 46.8495 6.948 46.8495 6.988C46.6655 7.212 46.5055 7.46 46.3695 7.732C46.2415 7.996 46.1415 8.252 46.0695 8.5C45.9975 8.74 45.9535 8.956 45.9375 9.148C45.9215 9.34 45.9375 9.472 45.9855 9.544C46.0255 9.592 46.0935 9.608 46.1895 9.592C46.2855 9.568 46.4175 9.452 46.5855 9.244ZM44.2815 9.556C44.3775 9.556 44.4935 9.496 44.6295 9.376C44.7735 9.256 44.9215 9.096 45.0735 8.896C45.2255 8.696 45.3735 8.472 45.5175 8.224C45.6695 7.976 45.8015 7.724 45.9135 7.468C45.8815 7.364 45.8055 7.28 45.6855 7.216C45.5735 7.152 45.4415 7.12 45.2895 7.12C45.1055 7.12 44.9335 7.168 44.7735 7.264C44.6135 7.352 44.4735 7.48 44.3535 7.648C44.2415 7.808 44.1495 8.004 44.0775 8.236C44.0135 8.46 43.9815 8.708 43.9815 8.98C43.9815 9.156 44.0095 9.296 44.0655 9.4C44.1295 9.504 44.2015 9.556 44.2815 9.556Z" fill="#4A3E41"/>
</svg>
