<svg width="25" height="25" viewBox="0 0 25 25" fill="none" xmlns="http://www.w3.org/2000/svg">
<path d="M25 0H0V25H25V0Z" fill="#61A8DE"/>
<path d="M19.6851 5.51861L2.96724 12.0334C2.42575 12.2444 2.45856 13.0214 3.01596 13.186L7.26413 14.4405L8.84955 19.4712C9.01516 19.9967 9.68107 20.156 10.0666 19.7624L12.263 17.5197L16.5725 20.683C17.0999 21.0702 17.851 20.7826 17.9849 20.1422L20.8392 6.496C20.979 5.82757 20.3213 5.27066 19.6851 5.51861ZM17.5891 8.54704L9.82376 15.4139C9.74635 15.4824 9.69709 15.5771 9.68557 15.6798L9.3866 18.3375C9.37684 18.4242 9.25555 18.4357 9.22966 18.3524L7.9996 14.3888C7.94326 14.2073 8.01671 14.0107 8.17816 13.9106L17.3482 8.22328C17.5591 8.09239 17.775 8.38269 17.5891 8.54704Z" fill="white"/>
</svg>
